id;ano;demanda;notaCorteConvocados;notaCorteSuplentes;numeroInscritos;semestre;turma_id
18;2017;15.88;69.495;0;635;Primeiro;1
19;2017;4.25;58.25;0;170;Primeiro;2
20;2017;7;66.953;0;280;Primeiro;3
21;2017;2.78;56;0;111;Primeiro;6
22;2017;6.38;60.225;0;255;Primeiro;9
23;2017;7.15;62.433;0;286;Primeiro;10
24;2017;1.75;39.14;0;70;Primeiro;7
25;2017;7.8;57.2;0;312;Primeiro;8
26;2017;1.55;27.775;0;62;Primeiro;4
27;2017;2.48;49.438;0;99;Primeiro;5
28;2016;12.5;69.213;0;500;Segundo;1
29;2016;3.83;62.573;0;153;Segundo;2
30;2016;6.05;65.25;0;242;Segundo;3
31;2016;2.38;50.325;0;95;Segundo;6
32;2016;6.28;63.25;0;251;Segundo;9
34;2016;5.55;58.001;0;222;Segundo;10
35;2016;1.88;41.525;0;75;Segundo;7
36;2016;7.43;56.616;0;297;Segundo;8
37;2016;1.85;16.775;0;74;Segundo;4
38;2016;2.5;51.975;0;100;Segundo;5
